…
    ## [1] "El promedio de las llamadas en segundos es de  893.38  y en minutos es  14.89"

#### 6\. Realice una tabla de frecuencias con el tiempo de llamada.

``` r
duration_call <- dfTotal %>% 
  group_by(callDuration) %>% 
  tally() %>% 
  arrange(desc(n))
duration_call
```

    ## # A tibble: 31 x 2
    ##    callDuration     n
    ##    <drtn>       <int>
    ##  1    0 secs     9706
    ##  2   60 secs     8741
    ##  3 1380 secs     8630
    ##  4  780 secs     8614
    ##  5 1200 secs     8578
    ##  6  480 secs     8576
    ##  7 1020 secs     8576
    ##  8  240 secs     8513
    ##  9  120 secs     8508
    ## 10  540 secs     8504
    ## # ... with 21 more rows
…
