…
Perdidas <- filter(data, Venta <= 0)
groupTerr <- Perdidas %>% group_by(Territorio) %>%
  summarize(SumPerdidas = sum(Venta)) %>%
  arrange((SumPerdidas))
```

    ## `summarise()` ungrouping output (override with `.groups` argument)

``` r
groupTerr
```

    ## # A tibble: 104 x 2
    ##    Territorio SumPerdidas
    ##    <chr>            <dbl>
    ##  1 f7dfc635       -14985.
    ##  2 77192d63        -5641.
    ##  3 72520ba2        -3761.
    ##  4 69c1b705        -3370.
    ##  5 1d407777        -3300.
    ##  6 bc8e06ed        -3269.
    ##  7 2e812869        -3056.
    ##  8 67e9cc18        -2721.
    ##  9 8f79b7f8        -1858.
    ## 10 a0d39798        -1779.
    ## # ... with 94 more rows
…
