…
    ## `summarise()` ungrouping output (override with `.groups` argument)

``` r
df_poste[round_col] <- lapply(df_poste[round_col], function(x) format(round(x, 2), nsmall = 2))

write_xlsx(df_poste, './df_poste.xlsx')

df_poste
```

    ## # A tibble: 74,239 x 9
    ##        ID cantidad_servic~ costo ingreso ganancias rentabilidad promedio_costos
    ##     <int>            <int> <chr> <chr>   <chr>     <chr>        <chr>          
    ##  1 863979              338 "356~ 50494.~ "14799.0~ 29.31        "105.61"       
    ##  2 773607              293 "407~ 54202.~ "13451.0~ 24.82        "139.08"       
    ##  3 477971              417 "289~ 41223.~ "12247.0~ 29.71        " 69.49"       
    ##  4 969156              271 "321~ 44404.~ "12242.0~ 27.57        "118.68"       
    ##  5 337161              257 "233~ 34990.~ "11642.0~ 33.27        " 90.85"       
    ##  6 507880              225 "205~ 31122.~ "10524.0~ 33.81        " 91.55"       
    ##  7 353203              192 "197~ 28457.~ " 8722.0~ 30.65        "102.79"       
    ##  8 519948              256 "244~ 32007.~ " 7554.0~ 23.60        " 95.52"       
    ##  9 452252              163 " 82~ 15104.~ " 6831.0~ 45.22        " 50.76"       
    ## 10 873141              150 "154~ 22111.~ " 6648.0~ 30.07        "103.09"       
    ## # ... with 74,229 more rows, and 2 more variables: promedio_ingresos <chr>,
    ## #   promedio_ganacia <chr>

### Postes mas rentables

``` r
# Postes mas rentables
rentabilidad_postes <- df_poste %>% arrange(desc(rentabilidad))
write_xlsx(rentabilidad_postes, './rentabilidad_df_poste.xlsx')
rentabilidad_postes
```

    ## # A tibble: 74,239 x 9
    ##        ID cantidad_servic~ costo ingreso ganancias rentabilidad promedio_costos
    ##     <int>            <int> <chr> <chr>   <chr>     <chr>        <chr>          
    ##  1 390203                1 "   ~ "   48~ "   45.0~ 92.04        "  3.89"       
    ##  2 629466                1 "   ~ "   40~ "   36.0~ 89.64        "  4.16"       
    ##  3 806231                1 "   ~ "   54~ "   49.0~ 89.61        "  5.68"       
    ##  4 827412                1 "   ~ "   61~ "   54.0~ 88.45        "  7.05"       
    ##  5 291094                1 "   ~ "   83~ "   74.0~ 88.44        "  9.67"       
    ##  6 530842                1 "   ~ "   93~ "   82.0~ 87.83        " 11.36"       
    ##  7 895458                1 "   ~ "   56~ "   49.0~ 86.99        "  7.33"       
    ##  8 339720                1 "   ~ "   51~ "   45.0~ 86.76        "  6.87"       
    ##  9 758752                1 "   ~ "   31~ "   27.0~ 86.51        "  4.21"       
    ## 10 260779                1 "   ~ "   23~ "   20.0~ 86.47        "  3.13"       
    ## # ... with 74,229 more rows, and 2 more variables: promedio_ingresos <chr>,
    ## #   promedio_ganacia <chr>
…
    ## `summarise()` regrouping output by 'time_duration' (override with `.groups` argument)

``` r
df_tiempo_servicio[round_col] <- lapply(df_tiempo_servicio[round_col], function(x) format(round(x, 2), nsmall = 2))

write_xlsx(df_tiempo_servicio, './df_tiempo_servicio.xlsx')

# Rentabilidad de tiempo y servicio
rentabilidad_tiempo_servicio <- df_tiempo_servicio %>% arrange(desc(rentabilidad))
write_xlsx(rentabilidad_tiempo_servicio, './rentabilidad_tiempo_servicio.xlsx')
rentabilidad_tiempo_servicio
```

    ## # A tibble: 50 x 10
    ## # Groups:   time_duration [5]
    ##    time_duration Cod   cantidad_servic~ costo ingreso ganancias rentabilidad
    ##    <fct>         <chr>            <int> <chr> <chr>   <chr>     <chr>       
    ##  1 X5.30         CAMB~             3341 " 13~ " 2928~ " 162499~ 55.49       
    ##  2 X5.30         VISI~             1182 "  4~ " 1014~ "  51435~ 50.72       
    ##  3 X5.30         OTRO               295 "  1~ "  261~ "  12872~ 49.28       
    ##  4 X5.30         CAMB~              144 "   ~ "  112~ "   5084~ 45.35       
    ##  5 X5.30         REVI~             1373 "  5~ "  999~ "  43087~ 43.13       
    ##  6 X5.30         VERI~             4683 " 19~ " 3309~ " 137814~ 41.64       
    ##  7 X5.30         REVI~            14362 " 59~ " 9965~ " 402381~ 40.38       
    ##  8 X5.30         VERI~             7451 " 30~ " 5180~ " 208888~ 40.32       
    ##  9 X30.45        CAMB~             3694 " 25~ " 4246~ " 170927~ 40.25       
    ## 10 X5.30         CAMB~             6315 " 26~ " 4355~ " 175106~ 40.20       
    ## # ... with 40 more rows, and 3 more variables: promedio_costos <chr>,
    ## #   promedio_ingresos <chr>, promedio_ganacia <chr>
…
